<?xml version="1.0" encoding="UTF-8" standalone="no"?>
<!-- Created with Inkscape (http://www.inkscape.org/) -->

<svg
   width="124.15145mm"
   height="134.75667mm"
   viewBox="0 0 124.15145 134.75667"
   version="1.1"
   id="svg976"
   inkscape:version="1.1.1 (3bf5ae0d25, 2021-09-20)"
   sodipodi:docname="etienne.svg"
   xmlns:inkscape="http://www.inkscape.org/namespaces/inkscape"
   xmlns:sodipodi="http://sodipodi.sourceforge.net/DTD/sodipodi-0.dtd"
   xmlns="http://www.w3.org/2000/svg"
   xmlns:svg="http://www.w3.org/2000/svg">
  <defs
     id="defs973" />
  <g
     id="layer2"
     inkscape:label="guide"
     transform="translate(47.075724,54.387952)"
     style="display:none;fill:#fefefe;fill-opacity:1;stroke:#333333;stroke-width:1;stroke-miterlimit:4;stroke-dasharray:none;stroke-opacity:1"
     sodipodi:insensitive="true"
     inkscape:groupmode="layer">
    <path
       sodipodi:type="star"
       style="fill:#fefefe;fill-opacity:1;stroke:#333333;stroke-width:0.94955;stroke-miterlimit:4;stroke-dasharray:none;stroke-opacity:1;paint-order:stroke fill markers"
       id="path4894"
       inkscape:flatsided="true"
       sodipodi:sides="6"
       sodipodi:cx="-80.827759"
       sodipodi:cy="-23.382523"
       sodipodi:r1="29.8652"
       sodipodi:r2="25.864021"
       sodipodi:arg1="1.0471976"
       sodipodi:arg2="1.5707963"
       inkscape:rounded="0"
       inkscape:randomized="0"
       d="m -65.89516,2.4815001 -29.8652,-1.5e-6 -14.9326,-25.8640226 14.932602,-25.864021 29.8652,10e-7 14.932599,25.864023 z"
       transform="matrix(1.0531304,0,0,1.0531304,100.12217,37.615226)"
       inkscape:label="qualita" />
    <path
       sodipodi:type="star"
       style="display:inline;fill:#fefefe;fill-opacity:1;stroke:#333333;stroke-width:0.474772;stroke-miterlimit:4;stroke-dasharray:none;stroke-opacity:1;paint-order:stroke fill markers"
       id="path1212"
       inkscape:flatsided="true"
       sodipodi:sides="6"
       sodipodi:cx="-80.827759"
       sodipodi:cy="-23.382523"
       sodipodi:r1="29.8652"
       sodipodi:r2="25.864021"
       sodipodi:arg1="1.0471976"
       sodipodi:arg2="1.5707963"
       inkscape:rounded="0"
       inkscape:randomized="0"
       d="m -65.89516,2.4815001 -29.8652,-1.5e-6 -14.9326,-25.8640226 14.932602,-25.864021 29.8652,10e-7 14.932599,25.864023 z"
       transform="matrix(2.1062739,0,0,2.1062739,185.2454,62.240378)"
       inkscape:label="abilita-1" />
    <path
       style="display:inline;fill:none;stroke:#000000;stroke-width:0.264583px;stroke-linecap:butt;stroke-linejoin:miter;stroke-opacity:1"
       d="m 15.000004,-41.486333 47.178216,27.238359 -3e-6,54.476714 -47.178221,27.238354 -47.178216,-27.238359 3e-6,-54.476714 z"
       id="path1616"
       inkscape:label="abilita-2" />
  </g>
  <g
     inkscape:groupmode="layer"
     id="layer3"
     inkscape:label="disegno"
     transform="translate(23.589255,27.238526)"
     sodipodi:insensitive="true">
    <g
       inkscape:groupmode="layer"
       id="layer4"
       inkscape:label="abilita"
       sodipodi:insensitive="true">
      <path
         sodipodi:type="star"
         style="fill:#fefefe;stroke:#333333;stroke-width:6.41945;stroke-miterlimit:4;stroke-dasharray:none;paint-order:stroke fill markers"
         id="path1367-67-2-8"
         inkscape:flatsided="true"
         sodipodi:sides="6"
         sodipodi:cx="195.33644"
         sodipodi:cy="255.84074"
         sodipodi:r1="91.927544"
         sodipodi:r2="79.611588"
         sodipodi:arg1="1.0471976"
         sodipodi:arg2="1.5707963"
         inkscape:rounded="0"
         inkscape:randomized="0"
         transform="matrix(0.15577655,0,0,0.15577655,-15.531474,-40.571718)"
         inkscape:label="abilita-NNO-e"
         d="m 241.30021,335.45233 -91.92754,0 -45.96377,-79.61159 45.96377,-79.61159 91.92755,1e-5 45.96376,79.61159 z" />
      <text
         xml:space="preserve"
         style="font-size:2.46944px;line-height:1.25;font-family:FreeSerif;-inkscape-font-specification:FreeSerif;letter-spacing:0px;word-spacing:0px;stroke-width:0.264583"
         x="10.077024"
         y="-9.9217243"
         id="text3695-3-6-5"
         inkscape:label="abilita-NNO-t"><tspan
           sodipodi:role="line"
           id="tspan3693-6-1-0"
           style="font-size:2.46944px;fill:#404040;fill-opacity:1;stroke-width:0.264583"
           x="10.077024"
           y="-9.9217243">ABILITÀ</tspan></text>
      <path
         sodipodi:type="star"
         style="fill:#fefefe;stroke:#333333;stroke-width:6.41945;stroke-miterlimit:4;stroke-dasharray:none;paint-order:stroke fill markers"
         id="path1367-67-2-7"
         inkscape:flatsided="true"
         sodipodi:sides="6"
         sodipodi:cx="195.33644"
         sodipodi:cy="255.84074"
         sodipodi:r1="91.927544"
         sodipodi:r2="79.611588"
         sodipodi:arg1="1.0471976"
         sodipodi:arg2="1.5707963"
         inkscape:rounded="0"
         inkscape:randomized="0"
         transform="matrix(0.15577655,0,0,0.15577655,-39.120584,-26.952541)"
         inkscape:label="abilita-ONO-e"
         d="m 241.30021,335.45233 -91.92754,0 -45.96377,-79.61159 45.96377,-79.61159 91.92755,1e-5 45.96376,79.61159 z" />
      <text
         xml:space="preserve"
         style="font-size:2.46944px;line-height:1.25;font-family:FreeSerif;-inkscape-font-specification:FreeSerif;letter-spacing:0px;word-spacing:0px;stroke-width:0.264583"
         x="-13.512085"
         y="3.6972756"
         id="text3695-3-6-7"
         inkscape:label="abilita-ONO-t"><tspan
           sodipodi:role="line"
           id="tspan3693-6-1-11"
           style="font-size:2.46944px;fill:#404040;fill-opacity:1;stroke-width:0.264583"
           x="-13.512085"
           y="3.6972756">ABILITÀ</tspan></text>
      <path
         sodipodi:type="star"
         style="fill:#fefefe;stroke:#333333;stroke-width:6.41945;stroke-miterlimit:4;stroke-dasharray:none;paint-order:stroke fill markers"
         id="path1367-67-2-93"
         inkscape:flatsided="true"
         sodipodi:sides="6"
         sodipodi:cx="195.33644"
         sodipodi:cy="255.84074"
         sodipodi:r1="91.927544"
         sodipodi:r2="79.611588"
         sodipodi:arg1="1.0471976"
         sodipodi:arg2="1.5707963"
         inkscape:rounded="0"
         inkscape:randomized="0"
         transform="matrix(0.15577655,0,0,0.15577655,-39.120586,0.28581555)"
         inkscape:label="abilita-O-e"
         d="m 241.30021,335.45233 -91.92754,0 -45.96377,-79.61159 45.96377,-79.61159 91.92755,1e-5 45.96376,79.61159 z" />
      <text
         xml:space="preserve"
         style="font-size:2.46944px;line-height:1.25;font-family:FreeSerif;-inkscape-font-specification:FreeSerif;letter-spacing:0px;word-spacing:0px;stroke-width:0.264583"
         x="-13.512087"
         y="30.936275"
         id="text3695-3-6-90"
         inkscape:label="abilita-O-t"><tspan
           sodipodi:role="line"
           id="tspan3693-6-1-8"
           style="font-size:2.46944px;fill:#404040;fill-opacity:1;stroke-width:0.264583"
           x="-13.512087"
           y="30.936275">ABILITÀ</tspan></text>
      <path
         sodipodi:type="star"
         style="fill:#fefefe;stroke:#333333;stroke-width:6.41945;stroke-miterlimit:4;stroke-dasharray:none;paint-order:stroke fill markers"
         id="path1367-67-2-9"
         inkscape:flatsided="true"
         sodipodi:sides="6"
         sodipodi:cx="195.33644"
         sodipodi:cy="255.84074"
         sodipodi:r1="91.927544"
         sodipodi:r2="79.611588"
         sodipodi:arg1="1.0471976"
         sodipodi:arg2="1.5707963"
         inkscape:rounded="0"
         inkscape:randomized="0"
         transform="matrix(0.15577655,0,0,0.15577655,-39.120586,27.524173)"
         inkscape:label="abilita-OSO-e"
         d="m 241.30021,335.45233 -91.92754,0 -45.96377,-79.61159 45.96377,-79.61159 91.92755,1e-5 45.96376,79.61159 z" />
      <text
         xml:space="preserve"
         style="font-size:2.46944px;line-height:1.25;font-family:FreeSerif;-inkscape-font-specification:FreeSerif;letter-spacing:0px;word-spacing:0px;stroke-width:0.264583"
         x="-13.512087"
         y="58.174274"
         id="text3695-3-6-09"
         inkscape:label="abilita-OSO-t"><tspan
           sodipodi:role="line"
           id="tspan3693-6-1-1"
           style="font-size:2.46944px;fill:#404040;fill-opacity:1;stroke-width:0.264583"
           x="-13.512087"
           y="58.174274">ABILITÀ</tspan></text>
      <path
         sodipodi:type="star"
         style="fill:#fefefe;stroke:#333333;stroke-width:6.41945;stroke-miterlimit:4;stroke-dasharray:none;paint-order:stroke fill markers"
         id="path1367-67-2-4"
         inkscape:flatsided="true"
         sodipodi:sides="6"
         sodipodi:cx="195.33644"
         sodipodi:cy="255.84074"
         sodipodi:r1="91.927544"
         sodipodi:r2="79.611588"
         sodipodi:arg1="1.0471976"
         sodipodi:arg2="1.5707963"
         inkscape:rounded="0"
         inkscape:randomized="0"
         transform="matrix(0.15577655,0,0,0.15577655,-15.53148,41.143352)"
         inkscape:label="abilita-SSO-e"
         d="m 241.30021,335.45233 -91.92754,0 -45.96377,-79.61159 45.96377,-79.61159 91.92755,1e-5 45.96376,79.61159 z" />
      <text
         xml:space="preserve"
         style="font-size:2.46944px;line-height:1.25;font-family:FreeSerif;-inkscape-font-specification:FreeSerif;letter-spacing:0px;word-spacing:0px;stroke-width:0.264583"
         x="10.077019"
         y="71.793274"
         id="text3695-3-6-8"
         inkscape:label="abilita-SSO-t"><tspan
           sodipodi:role="line"
           id="tspan3693-6-1-12"
           style="font-size:2.46944px;fill:#404040;fill-opacity:1;stroke-width:0.264583"
           x="10.077019"
           y="71.793274">ABILITÀ</tspan></text>
      <path
         sodipodi:type="star"
         style="fill:#fefefe;stroke:#333333;stroke-width:6.41945;stroke-miterlimit:4;stroke-dasharray:none;paint-order:stroke fill markers"
         id="path1367-67-2-5"
         inkscape:flatsided="true"
         sodipodi:sides="6"
         sodipodi:cx="195.33644"
         sodipodi:cy="255.84074"
         sodipodi:r1="91.927544"
         sodipodi:r2="79.611588"
         sodipodi:arg1="1.0471976"
         sodipodi:arg2="1.5707963"
         inkscape:rounded="0"
         inkscape:randomized="0"
         transform="matrix(0.15577655,0,0,0.15577655,8.0576307,54.762533)"
         inkscape:label="abilita-S-e"
         d="m 241.30021,335.45233 -91.92754,0 -45.96377,-79.61159 45.96377,-79.61159 91.92755,1e-5 45.96376,79.61159 z" />
      <text
         xml:space="preserve"
         style="font-size:2.46944px;line-height:1.25;font-family:FreeSerif;-inkscape-font-specification:FreeSerif;letter-spacing:0px;word-spacing:0px;stroke-width:0.264583"
         x="33.66613"
         y="85.412277"
         id="text3695-3-6-9"
         inkscape:label="abilita-S-t"><tspan
           sodipodi:role="line"
           id="tspan3693-6-1-4"
           style="font-size:2.46944px;fill:#404040;fill-opacity:1;stroke-width:0.264583"
           x="33.66613"
           y="85.412277">ABILITÀ</tspan></text>
      <path
         sodipodi:type="star"
         style="fill:#fefefe;stroke:#333333;stroke-width:6.41945;stroke-miterlimit:4;stroke-dasharray:none;paint-order:stroke fill markers"
         id="path1367-67-2-6"
         inkscape:flatsided="true"
         sodipodi:sides="6"
         sodipodi:cx="195.33644"
         sodipodi:cy="255.84074"
         sodipodi:r1="91.927544"
         sodipodi:r2="79.611588"
         sodipodi:arg1="1.0471976"
         sodipodi:arg2="1.5707963"
         inkscape:rounded="0"
         inkscape:randomized="0"
         transform="matrix(0.15577655,0,0,0.15577655,31.646739,41.143355)"
         inkscape:label="abilita-SSE-e"
         d="m 241.30021,335.45233 -91.92754,0 -45.96377,-79.61159 45.96377,-79.61159 91.92755,1e-5 45.96376,79.61159 z" />
      <text
         xml:space="preserve"
         style="font-size:2.46944px;line-height:1.25;font-family:FreeSerif;-inkscape-font-specification:FreeSerif;letter-spacing:0px;word-spacing:0px;stroke-width:0.264583"
         x="57.255238"
         y="71.793274"
         id="text3695-3-6-3"
         inkscape:label="abilita-SSE-t"><tspan
           sodipodi:role="line"
           id="tspan3693-6-1-9"
           style="font-size:2.46944px;fill:#404040;fill-opacity:1;stroke-width:0.264583"
           x="57.255238"
           y="71.793274">ABILITÀ</tspan></text>
      <path
         sodipodi:type="star"
         style="fill:#fefefe;stroke:#333333;stroke-width:6.41945;stroke-miterlimit:4;stroke-dasharray:none;paint-order:stroke fill markers"
         id="path1367-67-2-1"
         inkscape:flatsided="true"
         sodipodi:sides="6"
         sodipodi:cx="195.33644"
         sodipodi:cy="255.84074"
         sodipodi:r1="91.927544"
         sodipodi:r2="79.611588"
         sodipodi:arg1="1.0471976"
         sodipodi:arg2="1.5707963"
         inkscape:rounded="0"
         inkscape:randomized="0"
         transform="matrix(0.15577655,0,0,0.15577655,55.235851,27.524178)"
         inkscape:label="abilita-ESE-e"
         d="m 241.30021,335.45233 -91.92754,0 -45.96377,-79.61159 45.96377,-79.61159 91.92755,1e-5 45.96376,79.61159 z" />
      <text
         xml:space="preserve"
         style="font-size:2.46944px;line-height:1.25;font-family:FreeSerif;-inkscape-font-specification:FreeSerif;letter-spacing:0px;word-spacing:0px;stroke-width:0.264583"
         x="80.844353"
         y="58.174274"
         id="text3695-3-6-0"
         inkscape:label="abilita-ESE-t"><tspan
           sodipodi:role="line"
           id="tspan3693-6-1-61"
           style="font-size:2.46944px;fill:#404040;fill-opacity:1;stroke-width:0.264583"
           x="80.844353"
           y="58.174274">ABILITÀ</tspan></text>
      <path
         sodipodi:type="star"
         style="fill:#fefefe;stroke:#333333;stroke-width:6.41945;stroke-miterlimit:4;stroke-dasharray:none;paint-order:stroke fill markers"
         id="path1367-67-2-3"
         inkscape:flatsided="true"
         sodipodi:sides="6"
         sodipodi:cx="195.33644"
         sodipodi:cy="255.84074"
         sodipodi:r1="91.927544"
         sodipodi:r2="79.611588"
         sodipodi:arg1="1.0471976"
         sodipodi:arg2="1.5707963"
         inkscape:rounded="0"
         inkscape:randomized="0"
         transform="matrix(0.15577655,0,0,0.15577655,55.235851,0.28582055)"
         inkscape:label="abilita-E-e"
         d="m 241.30021,335.45233 -91.92754,0 -45.96377,-79.61159 45.96377,-79.61159 91.92755,1e-5 45.96376,79.61159 z" />
      <text
         xml:space="preserve"
         style="font-size:2.46944px;line-height:1.25;font-family:FreeSerif;-inkscape-font-specification:FreeSerif;letter-spacing:0px;word-spacing:0px;stroke-width:0.264583"
         x="80.844353"
         y="30.936275"
         id="text3695-3-6-6"
         inkscape:label="abilita-E-t"><tspan
           sodipodi:role="line"
           id="tspan3693-6-1-5"
           style="font-size:2.46944px;fill:#404040;fill-opacity:1;stroke-width:0.264583"
           x="80.844353"
           y="30.936275">ABILITÀ</tspan></text>
      <path
         sodipodi:type="star"
         style="fill:#fefefe;stroke:#333333;stroke-width:6.41945;stroke-miterlimit:4;stroke-dasharray:none;paint-order:stroke fill markers"
         id="path1367-67-2-2"
         inkscape:flatsided="true"
         sodipodi:sides="6"
         sodipodi:cx="195.33644"
         sodipodi:cy="255.84074"
         sodipodi:r1="91.927544"
         sodipodi:r2="79.611588"
         sodipodi:arg1="1.0471976"
         sodipodi:arg2="1.5707963"
         inkscape:rounded="0"
         inkscape:randomized="0"
         transform="matrix(0.15577655,0,0,0.15577655,55.235853,-26.952536)"
         inkscape:label="abilita-ENE-e"
         d="m 241.30021,335.45233 -91.92754,0 -45.96377,-79.61159 45.96377,-79.61159 91.92755,1e-5 45.96376,79.61159 z" />
      <text
         xml:space="preserve"
         style="font-size:2.46944px;line-height:1.25;font-family:FreeSerif;-inkscape-font-specification:FreeSerif;letter-spacing:0px;word-spacing:0px;stroke-width:0.264583"
         x="80.844353"
         y="3.6972756"
         id="text3695-3-6-2"
         inkscape:label="abilita-ENE-t"><tspan
           sodipodi:role="line"
           id="tspan3693-6-1-6"
           style="font-size:2.46944px;fill:#404040;fill-opacity:1;stroke-width:0.264583"
           x="80.844353"
           y="3.6972756">ABILITÀ</tspan></text>
      <path
         sodipodi:type="star"
         style="fill:#fefefe;stroke:#333333;stroke-width:6.41945;stroke-miterlimit:4;stroke-dasharray:none;paint-order:stroke fill markers"
         id="path1367-67-2-97"
         inkscape:flatsided="true"
         sodipodi:sides="6"
         sodipodi:cx="195.33644"
         sodipodi:cy="255.84074"
         sodipodi:r1="91.927544"
         sodipodi:r2="79.611588"
         sodipodi:arg1="1.0471976"
         sodipodi:arg2="1.5707963"
         inkscape:rounded="0"
         inkscape:randomized="0"
         transform="matrix(0.15577655,0,0,0.15577655,31.646744,-40.571716)"
         inkscape:label="abilita-NNE-e"
         d="m 241.30021,335.45233 -91.92754,0 -45.96377,-79.61159 45.96377,-79.61159 91.92755,1e-5 45.96376,79.61159 z" />
      <text
         xml:space="preserve"
         style="font-size:2.46944px;line-height:1.25;font-family:FreeSerif;-inkscape-font-specification:FreeSerif;letter-spacing:0px;word-spacing:0px;stroke-width:0.264583"
         x="57.255241"
         y="-9.9217243"
         id="text3695-3-6-76"
         inkscape:label="abilita-NNE-t"><tspan
           sodipodi:role="line"
           id="tspan3693-6-1-7"
           style="font-size:2.46944px;fill:#404040;fill-opacity:1;stroke-width:0.264583"
           x="57.255241"
           y="-9.9217243">ABILITÀ</tspan></text>
      <path
         sodipodi:type="star"
         style="fill:#fefefe;stroke:#333333;stroke-width:6.41945;stroke-miterlimit:4;stroke-dasharray:none;paint-order:stroke fill markers"
         id="path1367-67-2"
         inkscape:flatsided="true"
         sodipodi:sides="6"
         sodipodi:cx="195.33644"
         sodipodi:cy="255.84074"
         sodipodi:r1="91.927544"
         sodipodi:r2="79.611588"
         sodipodi:arg1="1.0471976"
         sodipodi:arg2="1.5707963"
         inkscape:rounded="0"
         inkscape:randomized="0"
         transform="matrix(0.15577655,0,0,0.15577655,8.0576361,-54.190896)"
         inkscape:label="abilita-N-e"
         d="m 241.30021,335.45233 -91.92754,0 -45.96377,-79.61159 45.96377,-79.61159 91.92755,1e-5 45.96376,79.61159 z" />
      <text
         xml:space="preserve"
         style="font-size:2.46944px;line-height:1.25;font-family:FreeSerif;-inkscape-font-specification:FreeSerif;letter-spacing:0px;word-spacing:0px;stroke-width:0.264583"
         x="33.666134"
         y="-23.540724"
         id="text3695-3-6"
         inkscape:label="abilita-N-t"><tspan
           sodipodi:role="line"
           id="tspan3693-6-1"
           style="font-size:2.46944px;fill:#404040;fill-opacity:1;stroke-width:0.264583"
           x="33.666134"
           y="-23.540724">ABILITÀ</tspan></text>
    </g>
    <g
       inkscape:label="qualita"
       inkscape:groupmode="layer"
       id="layer1"
       transform="translate(-2.7190952,-18.47787)"
       sodipodi:insensitive="true">
      <path
         sodipodi:type="star"
         style="fill:#fefefe;stroke:#333333;stroke-width:6.41945;stroke-miterlimit:4;stroke-dasharray:none;paint-order:stroke fill markers"
         id="path1367-67-3"
         inkscape:flatsided="true"
         sodipodi:sides="6"
         sodipodi:cx="195.33644"
         sodipodi:cy="255.84074"
         sodipodi:r1="91.927544"
         sodipodi:r2="79.611588"
         sodipodi:arg1="1.0471976"
         sodipodi:arg2="1.5707963"
         inkscape:rounded="0"
         inkscape:randomized="0"
         transform="matrix(0.15577655,0,0,0.15577655,-12.812235,5.144593)"
         inkscape:label="qualita-NO-e"
         d="m 241.30021,335.45233 -91.92754,0 -45.96377,-79.61159 45.96377,-79.61159 91.92755,1e-5 45.96376,79.61159 z" />
      <text
         xml:space="preserve"
         style="font-size:2.46944px;line-height:1.25;font-family:FreeSerif;-inkscape-font-specification:FreeSerif;letter-spacing:0px;word-spacing:0px;stroke-width:0.264583"
         x="12.233232"
         y="35.795147"
         id="text3695-3-1"
         inkscape:label="qualita-NO-t"><tspan
           sodipodi:role="line"
           id="tspan3693-6-7"
           style="font-size:2.46944px;fill:#404040;fill-opacity:1;stroke-width:0.264583"
           x="12.233232"
           y="35.795147">QUALITÀ</tspan></text>
      <path
         sodipodi:type="star"
         style="fill:#fefefe;stroke:#333333;stroke-width:6.41945;stroke-miterlimit:4;stroke-dasharray:none;paint-order:stroke fill markers"
         id="path1367-67-4"
         inkscape:flatsided="true"
         sodipodi:sides="6"
         sodipodi:cx="195.33644"
         sodipodi:cy="255.84074"
         sodipodi:r1="91.927544"
         sodipodi:r2="79.611588"
         sodipodi:arg1="1.0471976"
         sodipodi:arg2="1.5707963"
         inkscape:rounded="0"
         inkscape:randomized="0"
         transform="matrix(0.15577655,0,0,0.15577655,-12.812236,32.382781)"
         inkscape:label="qualita-SO-e"
         d="m 241.30021,335.45233 -91.92754,0 -45.96377,-79.61159 45.96377,-79.61159 91.92755,1e-5 45.96376,79.61159 z" />
      <text
         xml:space="preserve"
         style="font-size:2.46944px;line-height:1.25;font-family:FreeSerif;-inkscape-font-specification:FreeSerif;letter-spacing:0px;word-spacing:0px;stroke-width:0.264583"
         x="12.233232"
         y="63.033146"
         id="text3695-3-7"
         inkscape:label="qualita-SO-t"><tspan
           sodipodi:role="line"
           id="tspan3693-6-6"
           style="font-size:2.46944px;fill:#404040;fill-opacity:1;stroke-width:0.264583"
           x="12.233232"
           y="63.033146">QUALITÀ</tspan></text>
      <path
         sodipodi:type="star"
         style="fill:#fefefe;stroke:#333333;stroke-width:6.41945;stroke-miterlimit:4;stroke-dasharray:none;paint-order:stroke fill markers"
         id="path1367-67-0"
         inkscape:flatsided="true"
         sodipodi:sides="6"
         sodipodi:cx="195.33644"
         sodipodi:cy="255.84074"
         sodipodi:r1="91.927544"
         sodipodi:r2="79.611588"
         sodipodi:arg1="1.0471976"
         sodipodi:arg2="1.5707963"
         inkscape:rounded="0"
         inkscape:randomized="0"
         transform="matrix(0.15577655,0,0,0.15577655,10.776726,46.001876)"
         inkscape:label="qualita-S-e"
         d="m 241.30021,335.45233 -91.92754,0 -45.96377,-79.61159 45.96377,-79.61159 91.92755,1e-5 45.96376,79.61159 z" />
      <text
         xml:space="preserve"
         style="font-size:2.46944px;line-height:1.25;font-family:FreeSerif;-inkscape-font-specification:FreeSerif;letter-spacing:0px;word-spacing:0px;stroke-width:0.264583"
         x="35.822193"
         y="76.652145"
         id="text3695-3-44"
         inkscape:label="qualita-S-t"><tspan
           sodipodi:role="line"
           id="tspan3693-6-4"
           style="font-size:2.46944px;fill:#404040;fill-opacity:1;stroke-width:0.264583"
           x="35.822193"
           y="76.652145">QUALITÀ</tspan></text>
      <path
         sodipodi:type="star"
         style="fill:#fefefe;stroke:#333333;stroke-width:6.41945;stroke-miterlimit:4;stroke-dasharray:none;paint-order:stroke fill markers"
         id="path1367-67-1"
         inkscape:flatsided="true"
         sodipodi:sides="6"
         sodipodi:cx="195.33644"
         sodipodi:cy="255.84074"
         sodipodi:r1="91.927544"
         sodipodi:r2="79.611588"
         sodipodi:arg1="1.0471976"
         sodipodi:arg2="1.5707963"
         inkscape:rounded="0"
         inkscape:randomized="0"
         transform="matrix(0.15577655,0,0,0.15577655,34.365689,32.382783)"
         inkscape:label="qualita-SE-e"
         d="m 241.30021,335.45233 -91.92754,0 -45.96377,-79.61159 45.96377,-79.61159 91.92755,1e-5 45.96376,79.61159 z" />
      <text
         xml:space="preserve"
         style="font-size:2.46944px;line-height:1.25;font-family:FreeSerif;-inkscape-font-specification:FreeSerif;letter-spacing:0px;word-spacing:0px;stroke-width:0.264583"
         x="59.411156"
         y="63.033146"
         id="text3695-3-0"
         inkscape:label="qualita-SE-t"><tspan
           sodipodi:role="line"
           id="tspan3693-6-3"
           style="font-size:2.46944px;fill:#404040;fill-opacity:1;stroke-width:0.264583"
           x="59.411156"
           y="63.033146">QUALITÀ</tspan></text>
      <path
         sodipodi:type="star"
         style="fill:#fefefe;stroke:#333333;stroke-width:6.41945;stroke-miterlimit:4;stroke-dasharray:none;paint-order:stroke fill markers"
         id="path1367-67-8"
         inkscape:flatsided="true"
         sodipodi:sides="6"
         sodipodi:cx="195.33644"
         sodipodi:cy="255.84074"
         sodipodi:r1="91.927544"
         sodipodi:r2="79.611588"
         sodipodi:arg1="1.0471976"
         sodipodi:arg2="1.5707963"
         inkscape:rounded="0"
         inkscape:randomized="0"
         transform="matrix(0.15577655,0,0,0.15577655,34.36569,5.1445953)"
         inkscape:label="qualita-NE-e"
         d="m 241.30021,335.45233 -91.92754,0 -45.96377,-79.61159 45.96377,-79.61159 91.92755,1e-5 45.96376,79.61159 z" />
      <text
         xml:space="preserve"
         style="font-size:2.46944px;line-height:1.25;font-family:FreeSerif;-inkscape-font-specification:FreeSerif;letter-spacing:0px;word-spacing:0px;stroke-width:0.264583"
         x="59.41116"
         y="35.795147"
         id="text3695-3-4"
         inkscape:label="qualita-NE-t"><tspan
           sodipodi:role="line"
           id="tspan3693-6-8"
           style="font-size:2.46944px;fill:#404040;fill-opacity:1;stroke-width:0.264583"
           x="59.41116"
           y="35.795147">QUALITÀ</tspan></text>
      <path
         sodipodi:type="star"
         style="fill:#fefefe;stroke:#333333;stroke-width:6.41945;stroke-miterlimit:4;stroke-dasharray:none;paint-order:stroke fill markers"
         id="path1367-67"
         inkscape:flatsided="true"
         sodipodi:sides="6"
         sodipodi:cx="195.33644"
         sodipodi:cy="255.84074"
         sodipodi:r1="91.927544"
         sodipodi:r2="79.611588"
         sodipodi:arg1="1.0471976"
         sodipodi:arg2="1.5707963"
         inkscape:rounded="0"
         inkscape:randomized="0"
         transform="matrix(0.15577655,0,0,0.15577655,10.776728,-8.4744997)"
         inkscape:label="qualita-N-e"
         d="m 241.30021,335.45233 -91.92754,0 -45.96377,-79.61159 45.96377,-79.61159 91.92755,1e-5 45.96376,79.61159 z" />
      <text
         xml:space="preserve"
         style="font-size:2.46944px;line-height:1.25;font-family:FreeSerif;-inkscape-font-specification:FreeSerif;letter-spacing:0px;word-spacing:0px;stroke-width:0.264583"
         x="35.822197"
         y="22.176146"
         id="text3695-3"
         inkscape:label="qualita-N-t"><tspan
           sodipodi:role="line"
           id="tspan3693-6"
           style="font-size:2.46944px;fill:#404040;fill-opacity:1;stroke-width:0.264583"
           x="35.822197"
           y="22.176146">QUALITÀ</tspan></text>
    </g>
    <g
       inkscape:groupmode="layer"
       id="layer5"
       inkscape:label="archetipo"
       sodipodi:insensitive="true">
      <path
         sodipodi:type="star"
         style="fill:#fefefe;stroke:#333333;stroke-width:6.41945;stroke-miterlimit:4;stroke-dasharray:none;paint-order:stroke fill markers"
         id="path1367"
         inkscape:flatsided="true"
         sodipodi:sides="6"
         sodipodi:cx="195.33644"
         sodipodi:cy="255.84074"
         sodipodi:r1="91.927544"
         sodipodi:r2="79.611588"
         sodipodi:arg1="1.0471976"
         sodipodi:arg2="1.5707963"
         inkscape:rounded="0"
         inkscape:randomized="0"
         transform="matrix(0.15577655,0,0,0.15577655,8.0576365,0.28581842)"
         inkscape:label="archetipo-e"
         d="m 241.30021,335.45233 -91.92754,0 -45.96377,-79.61159 45.96377,-79.61159 91.92755,1e-5 45.96376,79.61159 z" />
      <text
         xml:space="preserve"
         style="font-size:2.46944px;line-height:1.25;font-family:FreeSerif;-inkscape-font-specification:FreeSerif;letter-spacing:0px;word-spacing:0px;stroke-width:0.264583"
         x="31.578226"
         y="30.407816"
         id="text3695"
         inkscape:label="archetipo-t"><tspan
           sodipodi:role="line"
           id="tspan3693"
           style="font-style:normal;font-variant:normal;font-weight:normal;font-stretch:normal;font-size:2.46944px;font-family:FreeSerif;-inkscape-font-specification:'FreeSerif, Normal';font-variant-ligatures:normal;font-variant-caps:normal;font-variant-numeric:normal;font-variant-east-asian:normal;fill:#404040;fill-opacity:1;stroke-width:0.264583"
           x="31.578226"
           y="30.407816">ARCHETIPO</tspan></text>
    </g>
  </g>
  <g
     inkscape:groupmode="layer"
     id="layer6"
     inkscape:label="tratti"
     sodipodi:insensitive="true">
    <text
       xml:space="preserve"
       style="font-size:2.82223px;line-height:1;font-family:FreeSerif;-inkscape-font-specification:FreeSerif;text-align:center;letter-spacing:0px;word-spacing:0px;text-anchor:middle;stroke-width:0.264583"
       x="38.479553"
       y="109.1545"
       id="text23992"
       inkscape:label="intimidire"><tspan
         sodipodi:role="line"
         id="tspan23990"
         style="stroke-width:0.264583"
         x="38.479553"
         y="109.1545">INTIMIDIRE</tspan></text>
    <text
       xml:space="preserve"
       style="font-size:2.82223px;line-height:1;font-family:FreeSerif;-inkscape-font-specification:FreeSerif;text-align:center;letter-spacing:0px;word-spacing:0px;text-anchor:middle;stroke-width:0.264583"
       x="62.068665"
       y="122.78921"
       id="text22794"
       inkscape:label="asce"><tspan
         sodipodi:role="line"
         id="tspan22792"
         style="stroke-width:0.264583"
         x="62.068665"
         y="122.78921">ASCE</tspan></text>
    <text
       xml:space="preserve"
       style="font-size:2.82223px;line-height:1;font-family:FreeSerif;-inkscape-font-specification:FreeSerif;text-align:center;letter-spacing:0px;word-spacing:0px;text-anchor:middle;stroke-width:0.264583"
       x="85.664833"
       y="109.17003"
       id="text22240"
       inkscape:label="forza-bruta"><tspan
         sodipodi:role="line"
         id="tspan22238"
         style="stroke-width:0.264583"
         x="85.664833"
         y="109.17003">FORZA BRUTA</tspan></text>
    <text
       xml:space="preserve"
       style="font-size:2.82223px;line-height:1;font-family:FreeSerif;-inkscape-font-specification:FreeSerif;text-align:center;letter-spacing:0px;word-spacing:0px;text-anchor:middle;stroke-width:0.264583"
       x="109.25394"
       y="92.728622"
       id="text21826"
       inkscape:label="bastardi-assassini"><tspan
         sodipodi:role="line"
         id="tspan21824"
         style="stroke-width:0.264583"
         x="109.25394"
         y="92.728622">QUEI</tspan><tspan
         sodipodi:role="line"
         style="stroke-width:0.264583"
         x="109.25394"
         y="95.55085"
         id="tspan26078">BASTARDI</tspan><tspan
         sodipodi:role="line"
         style="stroke-width:0.264583"
         x="109.25394"
         y="98.373085"
         id="tspan26302">ASSASSINI</tspan></text>
    <text
       xml:space="preserve"
       style="font-size:2.82223px;line-height:1;font-family:FreeSerif;-inkscape-font-specification:FreeSerif;text-align:center;letter-spacing:0px;word-spacing:0px;text-anchor:middle;stroke-width:0.264583"
       x="38.479702"
       y="81.700157"
       id="text21234"
       inkscape:label="inquietante"><tspan
         sodipodi:role="line"
         id="tspan21232"
         style="stroke-width:0.264583"
         x="38.479702"
         y="81.700157">INQUIETANTE</tspan></text>
    <text
       xml:space="preserve"
       style="font-size:2.82223px;line-height:1;font-family:FreeSerif;-inkscape-font-specification:FreeSerif;text-align:center;letter-spacing:0px;word-spacing:0px;text-anchor:middle;stroke-width:0.264583"
       x="62.068665"
       y="95.550682"
       id="text20688"
       inkscape:label="possente"><tspan
         sodipodi:role="line"
         id="tspan20686"
         style="stroke-width:0.264583"
         x="62.068665"
         y="95.550682">POSSENTE</tspan></text>
    <text
       xml:space="preserve"
       style="font-size:2.82223px;line-height:1;font-family:FreeSerif;-inkscape-font-specification:FreeSerif;text-align:center;letter-spacing:0px;word-spacing:0px;text-anchor:middle;stroke-width:0.264583"
       x="85.657631"
       y="81.931587"
       id="text19812"
       inkscape:label="implacabile"><tspan
         sodipodi:role="line"
         id="tspan19810"
         style="stroke-width:0.264583"
         x="85.657631"
         y="81.931587">IMPLACABILE</tspan></text>
    <text
       xml:space="preserve"
       style="font-size:2.82223px;line-height:1;font-family:FreeSerif;-inkscape-font-specification:FreeSerif;text-align:center;letter-spacing:0px;word-spacing:0px;text-anchor:middle;stroke-width:0.264583"
       x="62.103951"
       y="68.312492"
       id="text18862"
       inkscape:label="redivivo"><tspan
         sodipodi:role="line"
         id="tspan18860"
         style="stroke-width:0.264583"
         x="62.103951"
         y="68.312492">REDIVIVO</tspan></text>
  </g>
</svg>
